module ake.alauda.io/cluster-registry

go 1.13

require (
	github.com/go-logr/logr v0.1.0
	github.com/onsi/ginkgo v1.10.3
	github.com/onsi/gomega v1.7.1
	k8s.io/api v0.0.0-20190918155943-95b840bb6a1f
	k8s.io/apimachinery v0.0.0-20190913080033-27d36303b655
	k8s.io/client-go v0.0.0-20190918160344-1fbdaa4c8d90
	sigs.k8s.io/controller-runtime v0.4.0
)
